[
  {
    "label": "Sadiyah Reeves",
    "value": "Sadiyah Reeves"
  },
  {
    "label": "Barnaby Serrano",
    "value": "Barnaby Serrano"
  },
  {
    "label": "Kanye Joyce",
    "value": "Kanye Joyce"
  },
  {
    "label": "Dixie Pruitt",
    "value": "Dixie Pruitt"
  },
  {
    "label": "Kia Montoya",
    "value": "Kia Montoya"
  },
  {
    "label": "Can Bird",
    "value": "Can Bird"
  },
  {
    "label": "Arielle Sears",
    "value": "Arielle Sears"
  },
  {
    "label": "Jia Hicks",
    "value": "Jia Hicks"
  },
  {
    "label": "Haniya Maldonado",
    "value": "Haniya Maldonado"
  },
  {
    "label": "Lynn Searle",
    "value": "Lynn Searle"
  }
]